{
    "file": "EMPFlowSlim.json",
    "tracks": [
        {
            "ip_prefix": "simpleIp_",
            "n_to_save": 40,
            "selection": {
                "file": "fragments/LRT-track-cuts.json"
            },
            "sort_order": "abs_beamspot_d0",
            "btagging_link": "",
            "input_name": "JetTagStandardTracks",
            "output_name": "std_tracks",
            "variables": {
                "file": "fragments/pflow-track-variables.json"
            }
        },
        {
            "ip_prefix": "simpleIp_",
            "n_to_save": 40,
            "selection": {
                "file": "fragments/LRT-track-cuts.json"
            },
            "sort_order": "abs_beamspot_d0",
            "btagging_link": "",
            "input_name": "JetTagLRTTracks",
            "output_name": "lrt_tracks",
            "variables": {
                "file": "fragments/pflow-track-variables.json"
            }
        }
    ],
    "truths": [
        {
            "file": "fragments/overlap-leptons-TRUTH3.json"
        },
        {
            "association": {
                "file": "fragments/baseline-truth-kinematics.json",
                "particles": "truth_fromBC"
            },
            "output": {
                "n_to_save": 20,
                "sort_order": "pt"
            }
        }
    ],
    "decorate": {
        "jet_aug": false,
        "btag_jes": true,
        "soft_muon": false,
        "track_sv_info": false
    }
}
