# mc16_5TeV.800893.Py8EG_A14N23LO_jetjet_JZ1WithSW_bfilter.merge.AOD.e8366_d1521_r11472_r11217
# mc16_5TeV.800894.Py8EG_A14N23LO_jetjet_JZ2WithSW_bfilter.merge.AOD.e8366_d1521_r11472_r11217
# mc16_5TeV.800895.Py8EG_A14N23LO_jetjet_JZ3WithSW_bfilter.merge.AOD.e8366_d1521_r11472_r11217
# mc16_5TeV.800896.Py8EG_A14N23LO_jetjet_JZ4WithSW_bfilter.merge.AOD.e8366_d1521_r11472_r11217
mc16_5TeV.800897.Py8EG_A14N23LO_jetjet_JZ5WithSW_bfilter.merge.AOD.e8366_d1521_r11472_r11217